tl_e2e.vcd
$version Generated by VerilatedVcd $end
$timescale 1ps $end
 $scope module TOP $end
  $var wire 1 f clk $end
  $var wire 1 g rst_n $end
  $scope module noc_flit_pkg $end
   $var wire 32 r HDR_WIDTH [31:0] $end
   $var wire 32 s PAYLOAD_WIDTH [31:0] $end
  $upscope $end
  $scope module noc_params_pkg $end
   $var wire 32 t MESH_X [31:0] $end
   $var wire 32 t MESH_Y [31:0] $end
   $var wire 32 u NUM_NODES [31:0] $end
   $var wire 32 t NODE_ID_WIDTH [31:0] $end
   $var wire 32 v FLIT_WIDTH [31:0] $end
   $var wire 32 w NUM_VCS [31:0] $end
   $var wire 32 i VC_ESCAPE [31:0] $end
   $var wire 32 x VC_CTRL [31:0] $end
   $var wire 32 y VC_SYS [31:0] $end
   $var wire 32 z VC_REQ_H [31:0] $end
   $var wire 32 t VC_REQ_L [31:0] $end
   $var wire 32 { VC_RESP [31:0] $end
   $var wire 32 | VC_IO_H [31:0] $end
   $var wire 32 } VC_IO_L [31:0] $end
   $var wire 32 ~ VC_DEPTHS[0] [31:0] $end
   $var wire 32 !! VC_DEPTHS[1] [31:0] $end
   $var wire 32 "! VC_DEPTHS[2] [31:0] $end
   $var wire 32 #! VC_DEPTHS[3] [31:0] $end
   $var wire 32 $! VC_DEPTHS[4] [31:0] $end
   $var wire 32 %! VC_DEPTHS[5] [31:0] $end
   $var wire 32 &! VC_DEPTHS[6] [31:0] $end
   $var wire 32 '! VC_DEPTHS[7] [31:0] $end
   $var wire 32 (! VC_WEIGHTS[0] [31:0] $end
   $var wire 32 )! VC_WEIGHTS[1] [31:0] $end
   $var wire 32 *! VC_WEIGHTS[2] [31:0] $end
   $var wire 32 +! VC_WEIGHTS[3] [31:0] $end
   $var wire 32 ,! VC_WEIGHTS[4] [31:0] $end
   $var wire 32 -! VC_WEIGHTS[5] [31:0] $end
   $var wire 32 .! VC_WEIGHTS[6] [31:0] $end
   $var wire 32 /! VC_WEIGHTS[7] [31:0] $end
   $var wire 32 0! AGE_THRESHOLD [31:0] $end
   $var wire 32 w AGE_BOOST [31:0] $end
   $var wire 32 v TL_DATA_WIDTH [31:0] $end
   $var wire 32 u TL_BEAT_BYTES [31:0] $end
   $var wire 32 1! TL_ADDR_WIDTH [31:0] $end
   $var wire 32 w TL_SOURCE_WIDTH [31:0] $end
   $var wire 32 w TL_SINK_WIDTH [31:0] $end
   $var wire 32 u TL_MAX_BEATS [31:0] $end
   $var wire 32 2! TXN_ID_WIDTH [31:0] $end
   $var wire 3 j TL_CH_A [2:0] $end
   $var wire 3 k TL_CH_B [2:0] $end
   $var wire 3 l TL_CH_C [2:0] $end
   $var wire 3 m TL_CH_D [2:0] $end
   $var wire 3 n TL_CH_E [2:0] $end
  $upscope $end
  $scope module tb_tl_end_to_end $end
   $var wire 1 f clk $end
   $var wire 1 g rst_n $end
   $var wire 1 " c_noc_out_valid $end
   $var wire 128 # c_noc_out_flit [127:0] $end
   $var wire 1 h c_noc_out_ready $end
   $var wire 1 " m_noc_in_valid $end
   $var wire 128 # m_noc_in_flit [127:0] $end
   $var wire 1 h m_noc_in_ready $end
   $var wire 1 ? m_noc_out_valid $end
   $var wire 128 @ m_noc_out_flit [127:0] $end
   $var wire 1 h m_noc_out_ready $end
   $var wire 1 ? c_noc_in_valid $end
   $var wire 128 @ c_noc_in_flit [127:0] $end
   $var wire 1 h c_noc_in_ready $end
   $var wire 1 6 a_valid $end
   $var wire 211 7 a_bits [210:0] $end
   $var wire 1 ' a_ready $end
   $var wire 1 D d_valid $end
   $var wire 156 E d_bits [155:0] $end
   $var wire 1 h d_ready $end
   $var wire 1 J m_a_valid $end
   $var wire 211 K m_a_bits [210:0] $end
   $var wire 1 h m_a_ready $end
   $var wire 1 R m_d_valid $end
   $var wire 156 S m_d_bits [155:0] $end
   $var wire 1 h m_d_ready $end
   $var wire 32 > cycle [31:0] $end
   $scope module client $end
    $var wire 32 i NODE_ID [31:0] $end
    $var wire 1 f clk $end
    $var wire 1 g rst_n $end
    $var wire 1 6 a_valid $end
    $var wire 211 7 a_bits [210:0] $end
    $var wire 1 ' a_ready $end
    $var wire 1 D d_valid $end
    $var wire 156 E d_bits [155:0] $end
    $var wire 1 h d_ready $end
    $var wire 1 " noc_out_valid $end
    $var wire 128 # noc_out_flit [127:0] $end
    $var wire 1 h noc_out_ready $end
    $var wire 1 ? noc_in_valid $end
    $var wire 128 @ noc_in_flit [127:0] $end
    $var wire 1 h noc_in_ready $end
    $var wire 2 ( state [1:0] $end
    $var wire 211 X a_reg [210:0] $end
    $var wire 1 ) a_reg_valid $end
    $var wire 32 * total_beats [31:0] $end
    $var wire 32 + beat_index [31:0] $end
    $scope module unnamedblk1 $end
     $var wire 36 , hdr [35:0] $end
    $upscope $end
    $scope module unnamedblk2 $end
     $var wire 36 _ hdr [35:0] $end
    $upscope $end
   $upscope $end
   $scope module manager $end
    $var wire 32 i NODE_ID [31:0] $end
    $var wire 1 f clk $end
    $var wire 1 g rst_n $end
    $var wire 1 " noc_in_valid $end
    $var wire 128 # noc_in_flit [127:0] $end
    $var wire 1 h noc_in_ready $end
    $var wire 1 ? noc_out_valid $end
    $var wire 128 @ noc_out_flit [127:0] $end
    $var wire 1 h noc_out_ready $end
    $var wire 1 J a_valid $end
    $var wire 211 K a_bits [210:0] $end
    $var wire 1 h a_ready $end
    $var wire 1 R d_valid $end
    $var wire 156 S d_bits [155:0] $end
    $var wire 1 h d_ready $end
    $var wire 1 . a_pulse $end
    $var wire 36 / a_hdr_reg [35:0] $end
    $var wire 92 1 a_payload_reg [91:0] $end
    $var wire 1 4 a_has_reg $end
    $var wire 1 5 present_a $end
    $var wire 92 a payload [91:0] $end
    $scope module unnamedblk1 $end
     $var wire 36 d ohdr [35:0] $end
    $upscope $end
   $upscope $end
  $upscope $end
  $scope module tlc_types_pkg $end
   $var wire 3 j A_PutFullData [2:0] $end
   $var wire 3 k A_PutPartialData [2:0] $end
   $var wire 3 l A_ArithmeticData [2:0] $end
   $var wire 3 m A_LogicalData [2:0] $end
   $var wire 3 n A_Get [2:0] $end
   $var wire 3 o A_Hint [2:0] $end
   $var wire 3 p A_AcquireBlock [2:0] $end
   $var wire 3 q A_AcquirePerm [2:0] $end
   $var wire 3 j B_PutFullData [2:0] $end
   $var wire 3 k B_PutPartialData [2:0] $end
   $var wire 3 l B_ArithmeticData [2:0] $end
   $var wire 3 m B_LogicalData [2:0] $end
   $var wire 3 n B_Get [2:0] $end
   $var wire 3 o B_Hint [2:0] $end
   $var wire 3 p B_ProbeBlock [2:0] $end
   $var wire 3 q B_ProbePerm [2:0] $end
   $var wire 3 j C_AccessAck [2:0] $end
   $var wire 3 k C_AccessAckData [2:0] $end
   $var wire 3 l C_HintAck [2:0] $end
   $var wire 3 m C_Reserved3 [2:0] $end
   $var wire 3 n C_ProbeAck [2:0] $end
   $var wire 3 o C_ProbeAckData [2:0] $end
   $var wire 3 p C_Release [2:0] $end
   $var wire 3 q C_ReleaseData [2:0] $end
   $var wire 3 j D_AccessAck [2:0] $end
   $var wire 3 k D_AccessAckData [2:0] $end
   $var wire 3 l D_HintAck [2:0] $end
   $var wire 3 m D_Reserved3 [2:0] $end
   $var wire 3 n D_Grant [2:0] $end
   $var wire 3 o D_GrantData [2:0] $end
   $var wire 3 p D_ReleaseAck [2:0] $end
   $var wire 3 q D_Reserved7 [2:0] $end
  $upscope $end
 $upscope $end
$enddefinitions $end


#0
0"
b00000000000000000000000000000000000000000000000000000000000000000000000000000000000000000000000000000000000000000000000000000000 #
1'
b00 (
0)
b00000000000000000000000000000000 *
b00000000000000000000000000000000 +
b000000000000000000000000000000000000 ,
0.
b000000000000000000000000000000000000 /
b00000000000000000000000000000000000000000000000000000000000000000000000000000000000000000000 1
04
05
06
b0000000000000000000000000000000000000000000000000000000000000000000000000000000000000000000000000000000000000000000000000000000000000000000000000000000000000000000000000000000000000000000000000000000000000000000 7
b00000000000000000000000000000000 >
0?
b00000000000000000000000000000000000000000000000000000000000000000000000000000000000000000000000000000000000000000000000000000000 @
0D
b000000000000000000000000000000000000000000000000000000000000000000000000000000000000000000000000000000000000000000000000000000000000000000000000000000000000 E
0J
b0000000000000000000000000000000000000000000000000000000000000000000000000000000000000000000000000000000000000000000000000000000000000000000000000000000000000000000000000000000000000000000000000000000000000000000 K
0R
b000000000000000000000000000000000000000000000000000000000000000000000000000000000000000000000000000000000000000000000000000000000000000000000000000000000000 S
b0000000000000000000000000000000000000000000000000000000000000000000000000000000000000000000000000000000000000000000000000000000000000000000000000000000000000000000000000000000000000000000000000000000000000000000 X
b000000000000000000000000000000000000 _
b00000000000000000000000000000000000000000000000000000000000000000000000000000000000000000000 a
b000000000000000000000000000000000000 d
0f
0g
1h
b00000000000000000000000000000000 i
b000 j
b001 k
b010 l
b011 m
b100 n
b101 o
b110 p
b111 q
b00000000000000000000000000100100 r
b00000000000000000000000001011100 s
b00000000000000000000000000000100 t
b00000000000000000000000000010000 u
b00000000000000000000000010000000 v
b00000000000000000000000000001000 w
b00000000000000000000000000000001 x
b00000000000000000000000000000010 y
b00000000000000000000000000000011 z
b00000000000000000000000000000101 {
b00000000000000000000000000000110 |
b00000000000000000000000000000111 }
b00000000000000000000000000000100 ~
b00000000000000000000000000000100 !!
b00000000000000000000000000000100 "!
b00000000000000000000000000010000 #!
b00000000000000000000000000001000 $!
b00000000000000000000000000001000 %!
b00000000000000000000000000001100 &!
b00000000000000000000000000001000 '!
b00000000000000000000000000000000 (!
b00000000000000000000000000000100 )!
b00000000000000000000000000000011 *!
b00000000000000000000000000000110 +!
b00000000000000000000000000000010 ,!
b00000000000000000000000000000100 -!
b00000000000000000000000000000101 .!
b00000000000000000000000000000010 /!
b00000000000000000000001000000000 0!
b00000000000000000000000000110000 1!
b00000000000000000000000000100000 2!
#1
1f
#2
0f
#3
1f
#4
0f
#5
1f
#6
0f
#7
1f
#8
0f
#9
1f
#10
0f
#11
1f
#12
0f
#13
1f
#14
0f
#15
1f
#16
0f
#17
1f
#18
0f
#19
1f
#20
0f
1g
#21
b00000000000000000000000000000001 >
1f
#22
0f
#23
b00000000000000000000000000000010 >
1f
#24
0f
#25
b00000000000000000000000000000011 >
1f
#26
0f
#27
b00000000000000000000000000000100 >
1f
#28
0f
#29
b00000000000000000000000000000101 >
1f
#30
0f
#31
16
b0000000100101010100000000000000000000000000000000000000000000000011111111111111111011011110101011011011111011101111110010101111111010111010101111100000000000010001001000100011001101000100010101010110011001110111 7
b00000000000000000000000000000110 >
1f
#32
0f
#33
0'
1)
06
b00000000000000000000000000000111 >
b0000000100101010100000000000000000000000000000000000000000000000011111111111111111011011110101011011011111011101111110010101111111010111010101111100000000000010001001000100011001101000100010101010110011001110111 X
1f
#34
0f
#35
b01 (
0)
b00000000000000000000000000000001 *
b00000000000000000000000000001000 >
1f
#36
0f
#37
1"
b00010110001010101000000000101010101110101111111010111010101111100000000000010001001000100011001101000100010101010110011001110111 #
1'
b00 (
b00000000000000000000000000000001 +
b000101100010101010000000001010101011 ,
b00000000000000000000000000001001 >
1f
#38
0f
#39
0"
1.
b000101100010101010000000001010101011 /
b10101111111010111010101111100000000000010001001000100011001101000100010101010110011001110111 1
14
b00000000000000000000000000001010 >
1f
#40
0f
#41
0.
04
15
b00000000000000000000000000001011 >
1J
b0000000000101010100000000000000000000000000000000000000000000000010000000000000000000000000000000000000000000000000000010101111111010111010101111100000000000010001001000100011001101000100010101010110011001110111 K
1f
#42
0f
#43
05
b00000000000000000000000000001100 >
0J
b0000000000000000000000000000000000000000000000000000000000000000000000000000000000000000000000000000000000000000000000000000000000000000000000000000000000000000000000000000000000000000000000000000000000000000000 K
1R
b000000000010101010101010100000000000000000000000000000000000000010101111111010111010101111100000000000010001001000100011001101000100010101010110011001110111 S
1f
#44
0f
#45
b00000000000000000000000000001101 >
1?
b10101010111010101010101010101010101110101111111010111010101111100000000000010001001000100011001101000100010101010110011001110111 @
0R
b10101111111010111010101111100000000000010001001000100011001101000100010101010110011001110111 a
b101010101110101010101010101010101011 d
1f
#46
0f
#47
b00000000000000000000000000001110 >
0?
b00000000000000000000000000000000000000000000000000000000000000000000000000000000000000000000000000000000000000000000000000000000 @
1D
b000000010010101010101010100000000000000000000000000000000000000010101111111010111010101111100000000000010001001000100011001101000100010101010110011001110111 E
b101010101110101010101010101010101011 _
1f
#48
0f
#49
b00000000000000000000000000001111 >
0D
1f
