waves/arb_waves.vcd
$version Generated by VerilatedVcd $end
$date Wed Mar  4 16:34:02 2026
 $end
$timescale   1ps $end

 $scope module TOP $end
  $var wire  1 C clk $end
  $scope module tb_noc_wrr_arbiter $end
   $var wire 32 D N [31:0] $end
   $var wire 16 1 age(0) [15:0] $end
   $var wire 16 2 age(1) [15:0] $end
   $var wire 16 3 age(2) [15:0] $end
   $var wire 16 4 age(3) [15:0] $end
   $var wire  1 C clk $end
   $var wire 32 5 cycle [31:0] $end
   $var wire  4 ? grant [3:0] $end
   $var wire 32 6 grant_count(0) [31:0] $end
   $var wire 32 7 grant_count(1) [31:0] $end
   $var wire 32 8 grant_count(2) [31:0] $end
   $var wire 32 9 grant_count(3) [31:0] $end
   $var wire  4 0 hold [3:0] $end
   $var wire 32 : i [31:0] $end
   $var wire  4 / req [3:0] $end
   $var wire  1 . rst_n $end
   $scope module dut $end
    $var wire 32 F AGE_BOOST [31:0] $end
    $var wire 32 E AGE_THRESHOLD [31:0] $end
    $var wire 32 D N [31:0] $end
    $var wire 32 # WEIGHTS(0) [31:0] $end
    $var wire 32 $ WEIGHTS(1) [31:0] $end
    $var wire 32 % WEIGHTS(2) [31:0] $end
    $var wire 32 & WEIGHTS(3) [31:0] $end
    $var wire 16 ; age(0) [15:0] $end
    $var wire 16 < age(1) [15:0] $end
    $var wire 16 = age(2) [15:0] $end
    $var wire 16 > age(3) [15:0] $end
    $var wire  1 C clk $end
    $var wire 32 ' deficit(0) [31:0] $end
    $var wire 32 ( deficit(1) [31:0] $end
    $var wire 32 ) deficit(2) [31:0] $end
    $var wire 32 * deficit(3) [31:0] $end
    $var wire  4 ? grant [3:0] $end
    $var wire  4 0 hold [3:0] $end
    $var wire 32 , i [31:0] $end
    $var wire  4 / req [3:0] $end
    $var wire  2 + rr_ptr [1:0] $end
    $var wire  1 . rst_n $end
    $scope module unnamedblk1 $end
     $var wire 32 @ j [31:0] $end
    $upscope $end
    $scope module unnamedblk2 $end
     $var wire 32 A k [31:0] $end
     $scope module unnamedblk3 $end
      $var wire 32 B idx [31:0] $end
     $upscope $end
    $upscope $end
    $scope module unnamedblk4 $end
     $var wire  1 - found_grant $end
    $upscope $end
   $upscope $end
  $upscope $end
 $upscope $end
$enddefinitions $end


#0
b00000000000000000000000000000001 #
b00000000000000000000000000000001 $
b00000000000000000000000000000001 %
b00000000000000000000000000000001 &
b00000000000000000000000000000000 '
b00000000000000000000000000000000 (
b00000000000000000000000000000000 )
b00000000000000000000000000000000 *
b00 +
b00000000000000000000000000000000 ,
0-
0.
b0000 /
b0000 0
b0000000000000000 1
b0000000000000000 2
b0000000000000000 3
b0000000000000000 4
b00000000000000000000000000000000 5
b00000000000000000000000000000000 6
b00000000000000000000000000000000 7
b00000000000000000000000000000000 8
b00000000000000000000000000000000 9
b00000000000000000000000000000000 :
b0000000000000000 ;
b0000000000000000 <
b0000000000000000 =
b0000000000000000 >
b0000 ?
b00000000000000000000000000000100 @
b00000000000000000000000000000100 A
b00000000000000000000000000000011 B
1C
b00000000000000000000000000000100 D
b00000000000000000000001000000000 E
b00000000000000000000000000001000 F
#1
0C
#2
b00000000000000000000000000000100 ,
b00000000000000000000000000000001 5
b00000000000000000000000000000100 :
1C
#3
0C
#4
b00000000000000000000000000000010 5
1C
#5
0C
#6
b00000000000000000000000000000011 5
1C
#7
0C
#8
b00000000000000000000000000000100 5
1C
#9
0C
#10
b00000000000000000000000000000101 5
1C
#11
0C
#12
1.
b00000000000000000000000000000110 5
1C
#13
0C
#14
b00000000000000000000000000000111 5
1C
#15
0C
#16
b00000000000000000000000000001000 5
1C
#17
0C
#18
b00000000000000000000000000001001 5
1C
#19
0C
#20
b00000000000000000000000000001010 5
1C
#21
0C
#22
b0001 /
b00000000000000000000000000001011 5
1C
#23
0C
#24
b00000000000000000000000000000001 '
b0000000000000001 1
b00000000000000000000000000001100 5
b0000000000000001 ;
b0001 ?
b00000000000000000000000000000000 A
b00000000000000000000000000000000 B
1C
#25
0C
#26
b00000000000000000000000000000000 '
b01 +
1-
b0000000000000010 1
b00000000000000000000000000001101 5
b00000000000000000000000000000001 6
b0000000000000010 ;
b0000 ?
b00000000000000000000000000000100 A
1C
#27
0C
#28
b00000000000000000000000000000001 '
0-
b0000000000000011 1
b00000000000000000000000000001110 5
b0000000000000011 ;
b0001 ?
b00000000000000000000000000000011 A
1C
#29
0C
#30
b00000000000000000000000000000000 '
1-
b0000000000000100 1
b00000000000000000000000000001111 5
b00000000000000000000000000000010 6
b0000000000000100 ;
b0000 ?
b00000000000000000000000000000100 A
1C
#31
0C
#32
b00000000000000000000000000000001 '
0-
b0000000000000101 1
b00000000000000000000000000010000 5
b0000000000000101 ;
b0001 ?
b00000000000000000000000000000011 A
1C
#33
0C
#34
b00000000000000000000000000000000 '
1-
b0000000000000110 1
b00000000000000000000000000010001 5
b00000000000000000000000000000011 6
b0000000000000110 ;
b0000 ?
b00000000000000000000000000000100 A
1C
#35
0C
#36
b00000000000000000000000000000001 '
0-
b0000000000000111 1
b00000000000000000000000000010010 5
b0000000000000111 ;
b0001 ?
b00000000000000000000000000000011 A
1C
#37
0C
#38
b00000000000000000000000000000000 '
1-
b0000000000001000 1
b00000000000000000000000000010011 5
b00000000000000000000000000000100 6
b0000000000001000 ;
b0000 ?
b00000000000000000000000000000100 A
1C
#39
0C
#40
b00000000000000000000000000000001 '
0-
b0000000000001001 1
b00000000000000000000000000010100 5
b0000000000001001 ;
b0001 ?
b00000000000000000000000000000011 A
1C
#41
0C
#42
b00000000000000000000000000000000 '
1-
b0000000000001010 1
b00000000000000000000000000010101 5
b00000000000000000000000000000101 6
b0000000000001010 ;
b0000 ?
b00000000000000000000000000000100 A
1C
#43
0C
#44
b00000000000000000000000000000001 '
0-
b0000000000001011 1
b00000000000000000000000000010110 5
b0000000000001011 ;
b0001 ?
b00000000000000000000000000000011 A
1C
#45
0C
#46
b00000000000000000000000000000000 '
1-
b0000000000001100 1
b00000000000000000000000000010111 5
b00000000000000000000000000000110 6
b0000000000001100 ;
b0000 ?
b00000000000000000000000000000100 A
1C
#47
0C
#48
b00000000000000000000000000000001 '
0-
b0000000000001101 1
b00000000000000000000000000011000 5
b0000000000001101 ;
b0001 ?
b00000000000000000000000000000011 A
1C
#49
0C
#50
b00000000000000000000000000000000 '
1-
b0000000000001110 1
b00000000000000000000000000011001 5
b00000000000000000000000000000111 6
b0000000000001110 ;
b0000 ?
b00000000000000000000000000000100 A
1C
#51
0C
#52
b00000000000000000000000000000001 '
0-
b0000000000001111 1
b00000000000000000000000000011010 5
b0000000000001111 ;
b0001 ?
b00000000000000000000000000000011 A
1C
#53
0C
#54
b00000000000000000000000000000000 '
1-
b0000000000010000 1
b00000000000000000000000000011011 5
b00000000000000000000000000001000 6
b0000000000010000 ;
b0000 ?
b00000000000000000000000000000100 A
1C
#55
0C
#56
b00000000000000000000000000000001 '
0-
b0000000000010001 1
b00000000000000000000000000011100 5
b0000000000010001 ;
b0001 ?
b00000000000000000000000000000011 A
1C
#57
0C
#58
b00000000000000000000000000000000 '
1-
b0000000000010010 1
b00000000000000000000000000011101 5
b00000000000000000000000000001001 6
b0000000000010010 ;
b0000 ?
b00000000000000000000000000000100 A
1C
#59
0C
#60
b00000000000000000000000000000001 '
0-
b0000000000010011 1
b00000000000000000000000000011110 5
b0000000000010011 ;
b0001 ?
b00000000000000000000000000000011 A
1C
#61
0C
#62
b00000000000000000000000000000000 '
1-
b0010 /
b0000000000010100 1
b00000000000000000000000000011111 5
b00000000000000000000000000001010 6
b0000000000010100 ;
b0000 ?
b00000000000000000000000000000100 A
1C
#63
0C
#64
b00000000000000000000000000000001 (
0-
b0000000000000001 2
b00000000000000000000000000100000 5
b0000000000000001 <
b0010 ?
b00000000000000000000000000000000 A
b00000000000000000000000000000001 B
1C
#65
0C
#66
b00000000000000000000000000000000 (
b10 +
1-
b0000000000000010 2
b00000000000000000000000000100001 5
b00000000000000000000000000000001 7
b0000000000000010 <
b0000 ?
b00000000000000000000000000000100 A
1C
#67
0C
#68
b00000000000000000000000000000001 (
0-
b0000000000000011 2
b00000000000000000000000000100010 5
b0000000000000011 <
b0010 ?
b00000000000000000000000000000011 A
1C
#69
0C
#70
b00000000000000000000000000000000 (
1-
b0000000000000100 2
b00000000000000000000000000100011 5
b00000000000000000000000000000010 7
b0000000000000100 <
b0000 ?
b00000000000000000000000000000100 A
1C
#71
0C
#72
b00000000000000000000000000000001 (
0-
b0000000000000101 2
b00000000000000000000000000100100 5
b0000000000000101 <
b0010 ?
b00000000000000000000000000000011 A
1C
#73
0C
#74
b00000000000000000000000000000000 (
1-
b0000000000000110 2
b00000000000000000000000000100101 5
b00000000000000000000000000000011 7
b0000000000000110 <
b0000 ?
b00000000000000000000000000000100 A
1C
#75
0C
#76
b00000000000000000000000000000001 (
0-
b0000000000000111 2
b00000000000000000000000000100110 5
b0000000000000111 <
b0010 ?
b00000000000000000000000000000011 A
1C
#77
0C
#78
b00000000000000000000000000000000 (
1-
b0000000000001000 2
b00000000000000000000000000100111 5
b00000000000000000000000000000100 7
b0000000000001000 <
b0000 ?
b00000000000000000000000000000100 A
1C
#79
0C
#80
b00000000000000000000000000000001 (
0-
b0000000000001001 2
b00000000000000000000000000101000 5
b0000000000001001 <
b0010 ?
b00000000000000000000000000000011 A
1C
#81
0C
#82
b00000000000000000000000000000000 (
1-
b0000000000001010 2
b00000000000000000000000000101001 5
b00000000000000000000000000000101 7
b0000000000001010 <
b0000 ?
b00000000000000000000000000000100 A
1C
#83
0C
#84
b00000000000000000000000000000001 (
0-
b0000000000001011 2
b00000000000000000000000000101010 5
b0000000000001011 <
b0010 ?
b00000000000000000000000000000011 A
1C
#85
0C
#86
b00000000000000000000000000000000 (
1-
b0000000000001100 2
b00000000000000000000000000101011 5
b00000000000000000000000000000110 7
b0000000000001100 <
b0000 ?
b00000000000000000000000000000100 A
1C
#87
0C
#88
b00000000000000000000000000000001 (
0-
b0000000000001101 2
b00000000000000000000000000101100 5
b0000000000001101 <
b0010 ?
b00000000000000000000000000000011 A
1C
#89
0C
#90
b00000000000000000000000000000000 (
1-
b0000000000001110 2
b00000000000000000000000000101101 5
b00000000000000000000000000000111 7
b0000000000001110 <
b0000 ?
b00000000000000000000000000000100 A
1C
#91
0C
#92
b00000000000000000000000000000001 (
0-
b0000000000001111 2
b00000000000000000000000000101110 5
b0000000000001111 <
b0010 ?
b00000000000000000000000000000011 A
1C
#93
0C
#94
b00000000000000000000000000000000 (
1-
b0000000000010000 2
b00000000000000000000000000101111 5
b00000000000000000000000000001000 7
b0000000000010000 <
b0000 ?
b00000000000000000000000000000100 A
1C
#95
0C
#96
b00000000000000000000000000000001 (
0-
b0000000000010001 2
b00000000000000000000000000110000 5
b0000000000010001 <
b0010 ?
b00000000000000000000000000000011 A
1C
#97
0C
#98
b00000000000000000000000000000000 (
1-
b0000000000010010 2
b00000000000000000000000000110001 5
b00000000000000000000000000001001 7
b0000000000010010 <
b0000 ?
b00000000000000000000000000000100 A
1C
#99
0C
#100
b00000000000000000000000000000001 (
0-
b0000000000010011 2
b00000000000000000000000000110010 5
b0000000000010011 <
b0010 ?
b00000000000000000000000000000011 A
1C
#101
0C
#102
b00000000000000000000000000000000 (
1-
b0100 /
b0000000000010100 2
b00000000000000000000000000110011 5
b00000000000000000000000000001010 7
b0000000000010100 <
b0000 ?
b00000000000000000000000000000100 A
1C
#103
0C
#104
b00000000000000000000000000000001 )
0-
b0000000000000001 3
b00000000000000000000000000110100 5
b0000000000000001 =
b0100 ?
b00000000000000000000000000000000 A
b00000000000000000000000000000010 B
1C
#105
0C
#106
b00000000000000000000000000000000 )
b11 +
1-
b0000000000000010 3
b00000000000000000000000000110101 5
b00000000000000000000000000000001 8
b0000000000000010 =
b0000 ?
b00000000000000000000000000000100 A
1C
#107
0C
#108
b00000000000000000000000000000001 )
0-
b0000000000000011 3
b00000000000000000000000000110110 5
b0000000000000011 =
b0100 ?
b00000000000000000000000000000011 A
1C
#109
0C
#110
b00000000000000000000000000000000 )
1-
b0000000000000100 3
b00000000000000000000000000110111 5
b00000000000000000000000000000010 8
b0000000000000100 =
b0000 ?
b00000000000000000000000000000100 A
1C
#111
0C
#112
b00000000000000000000000000000001 )
0-
b0000000000000101 3
b00000000000000000000000000111000 5
b0000000000000101 =
b0100 ?
b00000000000000000000000000000011 A
1C
#113
0C
#114
b00000000000000000000000000000000 )
1-
b0000000000000110 3
b00000000000000000000000000111001 5
b00000000000000000000000000000011 8
b0000000000000110 =
b0000 ?
b00000000000000000000000000000100 A
1C
#115
0C
#116
b00000000000000000000000000000001 )
0-
b0000000000000111 3
b00000000000000000000000000111010 5
b0000000000000111 =
b0100 ?
b00000000000000000000000000000011 A
1C
#117
0C
#118
b00000000000000000000000000000000 )
1-
b0000000000001000 3
b00000000000000000000000000111011 5
b00000000000000000000000000000100 8
b0000000000001000 =
b0000 ?
b00000000000000000000000000000100 A
1C
#119
0C
#120
b00000000000000000000000000000001 )
0-
b0000000000001001 3
b00000000000000000000000000111100 5
b0000000000001001 =
b0100 ?
b00000000000000000000000000000011 A
1C
#121
0C
#122
b00000000000000000000000000000000 )
1-
b0000000000001010 3
b00000000000000000000000000111101 5
b00000000000000000000000000000101 8
b0000000000001010 =
b0000 ?
b00000000000000000000000000000100 A
1C
#123
0C
#124
b00000000000000000000000000000001 )
0-
b0000000000001011 3
b00000000000000000000000000111110 5
b0000000000001011 =
b0100 ?
b00000000000000000000000000000011 A
1C
#125
0C
#126
b00000000000000000000000000000000 )
1-
b0000000000001100 3
b00000000000000000000000000111111 5
b00000000000000000000000000000110 8
b0000000000001100 =
b0000 ?
b00000000000000000000000000000100 A
1C
#127
0C
#128
b00000000000000000000000000000001 )
0-
b0000000000001101 3
b00000000000000000000000001000000 5
b0000000000001101 =
b0100 ?
b00000000000000000000000000000011 A
1C
#129
0C
#130
b00000000000000000000000000000000 )
1-
b0000000000001110 3
b00000000000000000000000001000001 5
b00000000000000000000000000000111 8
b0000000000001110 =
b0000 ?
b00000000000000000000000000000100 A
1C
#131
0C
#132
b00000000000000000000000000000001 )
0-
b0000000000001111 3
b00000000000000000000000001000010 5
b0000000000001111 =
b0100 ?
b00000000000000000000000000000011 A
1C
#133
0C
#134
b00000000000000000000000000000000 )
1-
b0000000000010000 3
b00000000000000000000000001000011 5
b00000000000000000000000000001000 8
b0000000000010000 =
b0000 ?
b00000000000000000000000000000100 A
1C
#135
0C
#136
b00000000000000000000000000000001 )
0-
b0000000000010001 3
b00000000000000000000000001000100 5
b0000000000010001 =
b0100 ?
b00000000000000000000000000000011 A
1C
#137
0C
#138
b00000000000000000000000000000000 )
1-
b0000000000010010 3
b00000000000000000000000001000101 5
b00000000000000000000000000001001 8
b0000000000010010 =
b0000 ?
b00000000000000000000000000000100 A
1C
#139
0C
#140
b00000000000000000000000000000001 )
0-
b0000000000010011 3
b00000000000000000000000001000110 5
b0000000000010011 =
b0100 ?
b00000000000000000000000000000011 A
1C
#141
0C
#142
b00000000000000000000000000000000 )
1-
b1000 /
b0000000000010100 3
b00000000000000000000000001000111 5
b00000000000000000000000000001010 8
b0000000000010100 =
b0000 ?
b00000000000000000000000000000100 A
1C
#143
0C
#144
b00000000000000000000000000000001 *
0-
b0000000000000001 4
b00000000000000000000000001001000 5
b0000000000000001 >
b1000 ?
b00000000000000000000000000000000 A
b00000000000000000000000000000011 B
1C
#145
0C
#146
b00000000000000000000000000000000 *
b00 +
1-
b0000000000000010 4
b00000000000000000000000001001001 5
b00000000000000000000000000000001 9
b0000000000000010 >
b0000 ?
b00000000000000000000000000000100 A
1C
#147
0C
#148
b00000000000000000000000000000001 *
0-
b0000000000000011 4
b00000000000000000000000001001010 5
b0000000000000011 >
b1000 ?
b00000000000000000000000000000011 A
1C
#149
0C
#150
b00000000000000000000000000000000 *
1-
b0000000000000100 4
b00000000000000000000000001001011 5
b00000000000000000000000000000010 9
b0000000000000100 >
b0000 ?
b00000000000000000000000000000100 A
1C
#151
0C
#152
b00000000000000000000000000000001 *
0-
b0000000000000101 4
b00000000000000000000000001001100 5
b0000000000000101 >
b1000 ?
b00000000000000000000000000000011 A
1C
#153
0C
#154
b00000000000000000000000000000000 *
1-
b0000000000000110 4
b00000000000000000000000001001101 5
b00000000000000000000000000000011 9
b0000000000000110 >
b0000 ?
b00000000000000000000000000000100 A
1C
#155
0C
#156
b00000000000000000000000000000001 *
0-
b0000000000000111 4
b00000000000000000000000001001110 5
b0000000000000111 >
b1000 ?
b00000000000000000000000000000011 A
1C
#157
0C
#158
b00000000000000000000000000000000 *
1-
b0000000000001000 4
b00000000000000000000000001001111 5
b00000000000000000000000000000100 9
b0000000000001000 >
b0000 ?
b00000000000000000000000000000100 A
1C
#159
0C
#160
b00000000000000000000000000000001 *
0-
b0000000000001001 4
b00000000000000000000000001010000 5
b0000000000001001 >
b1000 ?
b00000000000000000000000000000011 A
1C
#161
0C
#162
b00000000000000000000000000000000 *
1-
b0000000000001010 4
b00000000000000000000000001010001 5
b00000000000000000000000000000101 9
b0000000000001010 >
b0000 ?
b00000000000000000000000000000100 A
1C
#163
0C
#164
b00000000000000000000000000000001 *
0-
b0000000000001011 4
b00000000000000000000000001010010 5
b0000000000001011 >
b1000 ?
b00000000000000000000000000000011 A
1C
#165
0C
#166
b00000000000000000000000000000000 *
1-
b0000000000001100 4
b00000000000000000000000001010011 5
b00000000000000000000000000000110 9
b0000000000001100 >
b0000 ?
b00000000000000000000000000000100 A
1C
#167
0C
#168
b00000000000000000000000000000001 *
0-
b0000000000001101 4
b00000000000000000000000001010100 5
b0000000000001101 >
b1000 ?
b00000000000000000000000000000011 A
1C
#169
0C
#170
b00000000000000000000000000000000 *
1-
b0000000000001110 4
b00000000000000000000000001010101 5
b00000000000000000000000000000111 9
b0000000000001110 >
b0000 ?
b00000000000000000000000000000100 A
1C
#171
0C
#172
b00000000000000000000000000000001 *
0-
b0000000000001111 4
b00000000000000000000000001010110 5
b0000000000001111 >
b1000 ?
b00000000000000000000000000000011 A
1C
#173
0C
#174
b00000000000000000000000000000000 *
1-
b0000000000010000 4
b00000000000000000000000001010111 5
b00000000000000000000000000001000 9
b0000000000010000 >
b0000 ?
b00000000000000000000000000000100 A
1C
#175
0C
#176
b00000000000000000000000000000001 *
0-
b0000000000010001 4
b00000000000000000000000001011000 5
b0000000000010001 >
b1000 ?
b00000000000000000000000000000011 A
1C
#177
0C
#178
b00000000000000000000000000000000 *
1-
b0000000000010010 4
b00000000000000000000000001011001 5
b00000000000000000000000000001001 9
b0000000000010010 >
b0000 ?
b00000000000000000000000000000100 A
1C
#179
0C
#180
b00000000000000000000000000000001 *
0-
b0000000000010011 4
b00000000000000000000000001011010 5
b0000000000010011 >
b1000 ?
b00000000000000000000000000000011 A
1C
#181
0C
#182
b00000000000000000000000000000000 *
1-
b0000 /
b0000000000010100 4
b00000000000000000000000001011011 5
b00000000000000000000000000001010 9
b0000000000010100 >
b0000 ?
b00000000000000000000000000000100 A
1C
#183
0C
#184
0-
b00000000000000000000000001011100 5
1C
#185
0C
#186
b00000000000000000000000001011101 5
1C
#187
0C
#188
b00000000000000000000000001011110 5
1C
#189
0C
#190
b00000000000000000000000001011111 5
1C
#191
0C
#192
b00000000000000000000000001100000 5
1C
#193
0C
#194
b00000000000000000000000001100001 5
1C
#195
0C
#196
b00000000000000000000000001100010 5
1C
#197
0C
#198
b00000000000000000000000001100011 5
1C
#199
0C
#200
b00000000000000000000000001100100 5
1C
#201
0C
#202
b1111 /
b00000000000000000000000001100101 5
1C
#203
0C
#204
b00000000000000000000000000000001 '
b00000000000000000000000000000001 (
b00000000000000000000000000000001 )
b00000000000000000000000000000001 *
b0000000000010101 1
b0000000000010101 2
b0000000000010101 3
b0000000000010101 4
b00000000000000000000000001100110 5
b0000000000010101 ;
b0000000000010101 <
b0000000000010101 =
b0000000000010101 >
b0001 ?
b00000000000000000000000000000000 A
b00000000000000000000000000000000 B
1C
#205
0C
#206
b00000000000000000000000000000000 '
b00000000000000000000000000000010 (
b00000000000000000000000000000010 )
b00000000000000000000000000000010 *
b01 +
1-
b0000000000010110 1
b0000000000010110 2
b0000000000010110 3
b0000000000010110 4
b00000000000000000000000001100111 5
b00000000000000000000000000001011 6
b0000000000010110 ;
b0000000000010110 <
b0000000000010110 =
b0000000000010110 >
b0010 ?
b00000000000000000000000000000001 B
1C
#207
0C
#208
b00000000000000000000000000000001 '
b00000000000000000000000000000001 (
b00000000000000000000000000000011 )
b00000000000000000000000000000011 *
b10 +
b0000000000010111 1
b0000000000010111 2
b0000000000010111 3
b0000000000010111 4
b00000000000000000000000001101000 5
b00000000000000000000000000001011 7
b0000000000010111 ;
b0000000000010111 <
b0000000000010111 =
b0000000000010111 >
b0100 ?
b00000000000000000000000000000010 B
1C
#209
0C
#210
b00000000000000000000000000000010 '
b00000000000000000000000000000010 (
b00000000000000000000000000000010 )
b00000000000000000000000000000100 *
b11 +
b0000000000011000 1
b0000000000011000 2
b0000000000011000 3
b0000000000011000 4
b00000000000000000000000001101001 5
b00000000000000000000000000001011 8
b0000000000011000 ;
b0000000000011000 <
b0000000000011000 =
b0000000000011000 >
b1000 ?
b00000000000000000000000000000011 B
1C
#211
0C
#212
b00000000000000000000000000000011 '
b00000000000000000000000000000011 (
b00000000000000000000000000000011 )
b00000000000000000000000000000011 *
b00 +
b0000000000011001 1
b0000000000011001 2
b0000000000011001 3
b0000000000011001 4
b00000000000000000000000001101010 5
b00000000000000000000000000001011 9
b0000000000011001 ;
b0000000000011001 <
b0000000000011001 =
b0000000000011001 >
b0001 ?
b00000000000000000000000000000000 B
1C
#213
0C
#214
b00000000000000000000000000000010 '
b00000000000000000000000000000100 (
b00000000000000000000000000000100 )
b00000000000000000000000000000100 *
b01 +
b0000000000011010 1
b0000000000011010 2
b0000000000011010 3
b0000000000011010 4
b00000000000000000000000001101011 5
b00000000000000000000000000001100 6
b0000000000011010 ;
b0000000000011010 <
b0000000000011010 =
b0000000000011010 >
b0010 ?
b00000000000000000000000000000001 B
1C
#215
0C
#216
b00000000000000000000000000000011 '
b00000000000000000000000000000011 (
b00000000000000000000000000000101 )
b00000000000000000000000000000101 *
b10 +
b0000000000011011 1
b0000000000011011 2
b0000000000011011 3
b0000000000011011 4
b00000000000000000000000001101100 5
b00000000000000000000000000001100 7
b0000000000011011 ;
b0000000000011011 <
b0000000000011011 =
b0000000000011011 >
b0100 ?
b00000000000000000000000000000010 B
1C
#217
0C
#218
b00000000000000000000000000000100 '
b00000000000000000000000000000100 (
b00000000000000000000000000000100 )
b00000000000000000000000000000110 *
b11 +
b0000000000011100 1
b0000000000011100 2
b0000000000011100 3
b0000000000011100 4
b00000000000000000000000001101101 5
b00000000000000000000000000001100 8
b0000000000011100 ;
b0000000000011100 <
b0000000000011100 =
b0000000000011100 >
b1000 ?
b00000000000000000000000000000011 B
1C
#219
0C
#220
b00000000000000000000000000000101 '
b00000000000000000000000000000101 (
b00000000000000000000000000000101 )
b00000000000000000000000000000101 *
b00 +
b0000000000011101 1
b0000000000011101 2
b0000000000011101 3
b0000000000011101 4
b00000000000000000000000001101110 5
b00000000000000000000000000001100 9
b0000000000011101 ;
b0000000000011101 <
b0000000000011101 =
b0000000000011101 >
b0001 ?
b00000000000000000000000000000000 B
1C
#221
0C
#222
b00000000000000000000000000000100 '
b00000000000000000000000000000110 (
b00000000000000000000000000000110 )
b00000000000000000000000000000110 *
b01 +
b0000000000011110 1
b0000000000011110 2
b0000000000011110 3
b0000000000011110 4
b00000000000000000000000001101111 5
b00000000000000000000000000001101 6
b0000000000011110 ;
b0000000000011110 <
b0000000000011110 =
b0000000000011110 >
b0010 ?
b00000000000000000000000000000001 B
1C
#223
0C
#224
b00000000000000000000000000000101 '
b00000000000000000000000000000101 (
b00000000000000000000000000000111 )
b00000000000000000000000000000111 *
b10 +
b0000000000011111 1
b0000000000011111 2
b0000000000011111 3
b0000000000011111 4
b00000000000000000000000001110000 5
b00000000000000000000000000001101 7
b0000000000011111 ;
b0000000000011111 <
b0000000000011111 =
b0000000000011111 >
b0100 ?
b00000000000000000000000000000010 B
1C
#225
0C
#226
b00000000000000000000000000000110 '
b00000000000000000000000000000110 (
b00000000000000000000000000000110 )
b00000000000000000000000000001000 *
b11 +
b0000000000100000 1
b0000000000100000 2
b0000000000100000 3
b0000000000100000 4
b00000000000000000000000001110001 5
b00000000000000000000000000001101 8
b0000000000100000 ;
b0000000000100000 <
b0000000000100000 =
b0000000000100000 >
b1000 ?
b00000000000000000000000000000011 B
1C
#227
0C
#228
b00000000000000000000000000000111 '
b00000000000000000000000000000111 (
b00000000000000000000000000000111 )
b00000000000000000000000000000111 *
b00 +
b0000000000100001 1
b0000000000100001 2
b0000000000100001 3
b0000000000100001 4
b00000000000000000000000001110010 5
b00000000000000000000000000001101 9
b0000000000100001 ;
b0000000000100001 <
b0000000000100001 =
b0000000000100001 >
b0001 ?
b00000000000000000000000000000000 B
1C
#229
0C
#230
b00000000000000000000000000000110 '
b00000000000000000000000000001000 (
b00000000000000000000000000001000 )
b00000000000000000000000000001000 *
b01 +
b0000000000100010 1
b0000000000100010 2
b0000000000100010 3
b0000000000100010 4
b00000000000000000000000001110011 5
b00000000000000000000000000001110 6
b0000000000100010 ;
b0000000000100010 <
b0000000000100010 =
b0000000000100010 >
b0010 ?
b00000000000000000000000000000001 B
1C
#231
0C
#232
b00000000000000000000000000000111 '
b00000000000000000000000000000111 (
b00000000000000000000000000001001 )
b00000000000000000000000000001001 *
b10 +
b0000000000100011 1
b0000000000100011 2
b0000000000100011 3
b0000000000100011 4
b00000000000000000000000001110100 5
b00000000000000000000000000001110 7
b0000000000100011 ;
b0000000000100011 <
b0000000000100011 =
b0000000000100011 >
b0100 ?
b00000000000000000000000000000010 B
1C
#233
0C
#234
b00000000000000000000000000001000 '
b00000000000000000000000000001000 (
b00000000000000000000000000001000 )
b00000000000000000000000000001010 *
b11 +
b0000000000100100 1
b0000000000100100 2
b0000000000100100 3
b0000000000100100 4
b00000000000000000000000001110101 5
b00000000000000000000000000001110 8
b0000000000100100 ;
b0000000000100100 <
b0000000000100100 =
b0000000000100100 >
b1000 ?
b00000000000000000000000000000011 B
1C
#235
0C
#236
b00000000000000000000000000001001 '
b00000000000000000000000000001001 (
b00000000000000000000000000001001 )
b00000000000000000000000000001001 *
b00 +
b0000000000100101 1
b0000000000100101 2
b0000000000100101 3
b0000000000100101 4
b00000000000000000000000001110110 5
b00000000000000000000000000001110 9
b0000000000100101 ;
b0000000000100101 <
b0000000000100101 =
b0000000000100101 >
b0001 ?
b00000000000000000000000000000000 B
1C
#237
0C
#238
b00000000000000000000000000001000 '
b00000000000000000000000000001010 (
b00000000000000000000000000001010 )
b00000000000000000000000000001010 *
b01 +
b0000000000100110 1
b0000000000100110 2
b0000000000100110 3
b0000000000100110 4
b00000000000000000000000001110111 5
b00000000000000000000000000001111 6
b0000000000100110 ;
b0000000000100110 <
b0000000000100110 =
b0000000000100110 >
b0010 ?
b00000000000000000000000000000001 B
1C
#239
0C
#240
b00000000000000000000000000001001 '
b00000000000000000000000000001001 (
b00000000000000000000000000001011 )
b00000000000000000000000000001011 *
b10 +
b0000000000100111 1
b0000000000100111 2
b0000000000100111 3
b0000000000100111 4
b00000000000000000000000001111000 5
b00000000000000000000000000001111 7
b0000000000100111 ;
b0000000000100111 <
b0000000000100111 =
b0000000000100111 >
b0100 ?
b00000000000000000000000000000010 B
1C
#241
0C
#242
b00000000000000000000000000001010 '
b00000000000000000000000000001010 (
b00000000000000000000000000001010 )
b00000000000000000000000000001100 *
b11 +
b0000000000101000 1
b0000000000101000 2
b0000000000101000 3
b0000000000101000 4
b00000000000000000000000001111001 5
b00000000000000000000000000001111 8
b0000000000101000 ;
b0000000000101000 <
b0000000000101000 =
b0000000000101000 >
b1000 ?
b00000000000000000000000000000011 B
1C
#243
0C
#244
b00000000000000000000000000001011 '
b00000000000000000000000000001011 (
b00000000000000000000000000001011 )
b00000000000000000000000000001011 *
b00 +
b0000000000101001 1
b0000000000101001 2
b0000000000101001 3
b0000000000101001 4
b00000000000000000000000001111010 5
b00000000000000000000000000001111 9
b0000000000101001 ;
b0000000000101001 <
b0000000000101001 =
b0000000000101001 >
b0001 ?
b00000000000000000000000000000000 B
1C
#245
0C
#246
b00000000000000000000000000001010 '
b00000000000000000000000000001100 (
b00000000000000000000000000001100 )
b00000000000000000000000000001100 *
b01 +
b0000000000101010 1
b0000000000101010 2
b0000000000101010 3
b0000000000101010 4
b00000000000000000000000001111011 5
b00000000000000000000000000010000 6
b0000000000101010 ;
b0000000000101010 <
b0000000000101010 =
b0000000000101010 >
b0010 ?
b00000000000000000000000000000001 B
1C
#247
0C
#248
b00000000000000000000000000001011 '
b00000000000000000000000000001011 (
b00000000000000000000000000001101 )
b00000000000000000000000000001101 *
b10 +
b0000000000101011 1
b0000000000101011 2
b0000000000101011 3
b0000000000101011 4
b00000000000000000000000001111100 5
b00000000000000000000000000010000 7
b0000000000101011 ;
b0000000000101011 <
b0000000000101011 =
b0000000000101011 >
b0100 ?
b00000000000000000000000000000010 B
1C
#249
0C
#250
b00000000000000000000000000001100 '
b00000000000000000000000000001100 (
b00000000000000000000000000001100 )
b00000000000000000000000000001110 *
b11 +
b0000000000101100 1
b0000000000101100 2
b0000000000101100 3
b0000000000101100 4
b00000000000000000000000001111101 5
b00000000000000000000000000010000 8
b0000000000101100 ;
b0000000000101100 <
b0000000000101100 =
b0000000000101100 >
b1000 ?
b00000000000000000000000000000011 B
1C
#251
0C
