waves/fifo.vcd
$version Generated by VerilatedVcd $end
$date Sun Mar  8 16:58:30 2026
 $end
$timescale   1ps $end

 $scope module TOP $end
  $var wire  1 Y clk $end
  $scope module noc_params_pkg $end
   $var wire 32 ] AGE_BOOST [31:0] $end
   $var wire 32 e AGE_THRESHOLD [31:0] $end
   $var wire 32 Z FLIT_WIDTH [31:0] $end
   $var wire 32 [ MESH_X [31:0] $end
   $var wire 32 [ MESH_Y [31:0] $end
   $var wire 32 [ NODE_ID_WIDTH [31:0] $end
   $var wire 32 \ NUM_NODES [31:0] $end
   $var wire 32 ] NUM_VCS [31:0] $end
   $var wire 32 f TL_ADDR_WIDTH [31:0] $end
   $var wire 32 \ TL_BEAT_BYTES [31:0] $end
   $var wire 32 Z TL_DATA_WIDTH [31:0] $end
   $var wire 32 \ TL_MAX_BEATS [31:0] $end
   $var wire 32 ] TL_SINK_WIDTH [31:0] $end
   $var wire 32 ] TL_SOURCE_WIDTH [31:0] $end
   $var wire 32 g TXN_ID_WIDTH [31:0] $end
   $var wire 32 _ VC_CTRL [31:0] $end
   $var wire 32 # VC_DEPTHS(0) [31:0] $end
   $var wire 32 $ VC_DEPTHS(1) [31:0] $end
   $var wire 32 % VC_DEPTHS(2) [31:0] $end
   $var wire 32 & VC_DEPTHS(3) [31:0] $end
   $var wire 32 ' VC_DEPTHS(4) [31:0] $end
   $var wire 32 ( VC_DEPTHS(5) [31:0] $end
   $var wire 32 ) VC_DEPTHS(6) [31:0] $end
   $var wire 32 * VC_DEPTHS(7) [31:0] $end
   $var wire 32 ^ VC_ESCAPE [31:0] $end
   $var wire 32 c VC_IO_H [31:0] $end
   $var wire 32 d VC_IO_L [31:0] $end
   $var wire 32 a VC_REQ_H [31:0] $end
   $var wire 32 [ VC_REQ_L [31:0] $end
   $var wire 32 b VC_RESP [31:0] $end
   $var wire 32 ` VC_SYS [31:0] $end
   $var wire 32 + VC_WEIGHTS(0) [31:0] $end
   $var wire 32 , VC_WEIGHTS(1) [31:0] $end
   $var wire 32 - VC_WEIGHTS(2) [31:0] $end
   $var wire 32 . VC_WEIGHTS(3) [31:0] $end
   $var wire 32 / VC_WEIGHTS(4) [31:0] $end
   $var wire 32 0 VC_WEIGHTS(5) [31:0] $end
   $var wire 32 1 VC_WEIGHTS(6) [31:0] $end
   $var wire 32 2 VC_WEIGHTS(7) [31:0] $end
  $upscope $end
  $scope module tb_noc_fifo $end
   $var wire  1 Y clk $end
   $var wire 32 X cycle [31:0] $end
   $var wire 128 S din [127:0] $end
   $var wire 128 3 dout [127:0] $end
   $var wire  1 8 empty $end
   $var wire  1 7 full $end
   $var wire  1 R pop $end
   $var wire  1 Q push $end
   $var wire 32 W results_fd [31:0] $end
   $var wire  1 P rst_n $end
   $scope module dut $end
    $var wire 32 [ DEPTH [31:0] $end
    $var wire 32 Z WIDTH [31:0] $end
    $var wire  1 Y clk $end
    $var wire  3 9 cnt [2:0] $end
    $var wire  3 9 count [2:0] $end
    $var wire 128 S din [127:0] $end
    $var wire 128 3 dout [127:0] $end
    $var wire  1 8 empty $end
    $var wire  3 : free_slots [2:0] $end
    $var wire  1 7 full $end
    $var wire 128 ; mem(0) [127:0] $end
    $var wire 128 ? mem(1) [127:0] $end
    $var wire 128 C mem(2) [127:0] $end
    $var wire 128 G mem(3) [127:0] $end
    $var wire  1 R pop $end
    $var wire  1 Q push $end
    $var wire  2 K rd_ptr [1:0] $end
    $var wire  1 P rst_n $end
    $var wire  2 L wr_ptr [1:0] $end
    $scope module unnamedblk1 $end
     $var wire 32 O i [31:0] $end
    $upscope $end
    $scope module unnamedblk2 $end
     $var wire  1 N do_pop $end
     $var wire  1 M do_push $end
    $upscope $end
   $upscope $end
  $upscope $end
 $upscope $end
$enddefinitions $end


#0
b00000000000000000000000000000100 #
b00000000000000000000000000000100 $
b00000000000000000000000000000100 %
b00000000000000000000000000010000 &
b00000000000000000000000000001000 '
b00000000000000000000000000001000 (
b00000000000000000000000000001100 )
b00000000000000000000000000001000 *
b00000000000000000000000000000000 +
b00000000000000000000000000000100 ,
b00000000000000000000000000000011 -
b00000000000000000000000000000110 .
b00000000000000000000000000000010 /
b00000000000000000000000000000100 0
b00000000000000000000000000000101 1
b00000000000000000000000000000010 2
b00000000000000000000000000000000000000000000000000000000000000000000000000000000000000000000000000000000000000000000000000000000 3
07
18
b000 9
b100 :
b00000000000000000000000000000000000000000000000000000000000000000000000000000000000000000000000000000000000000000000000000000000 ;
b00000000000000000000000000000000000000000000000000000000000000000000000000000000000000000000000000000000000000000000000000000000 ?
b00000000000000000000000000000000000000000000000000000000000000000000000000000000000000000000000000000000000000000000000000000000 C
b00000000000000000000000000000000000000000000000000000000000000000000000000000000000000000000000000000000000000000000000000000000 G
b00 K
b00 L
0M
0N
b00000000000000000000000000000000 O
0P
0Q
0R
b00000000000000000000000000000000000000000000000000000000000000000000000000000000000000000000000000000000000000000000000000000000 S
b10000000000000000000000000101100 W
b00000000000000000000000000000000 X
1Y
b00000000000000000000000010000000 Z
b00000000000000000000000000000100 [
b00000000000000000000000000010000 \
b00000000000000000000000000001000 ]
b00000000000000000000000000000000 ^
b00000000000000000000000000000001 _
b00000000000000000000000000000010 `
b00000000000000000000000000000011 a
b00000000000000000000000000000101 b
b00000000000000000000000000000110 c
b00000000000000000000000000000111 d
b00000000000000000000001000000000 e
b00000000000000000000000000110000 f
b00000000000000000000000000100000 g
#1
0Y
#2
b00000000000000000000000000000100 O
b00000000000000000000000000000001 X
1Y
#3
0Y
#4
b00000000000000000000000000000010 X
1Y
#5
0Y
#6
b00000000000000000000000000000011 X
1Y
#7
0Y
#8
b00000000000000000000000000000100 X
1Y
#9
0Y
#10
b00000000000000000000000000000101 X
1Y
#11
0Y
#12
1P
b00000000000000000000000000000110 X
1Y
#13
0Y
#14
b00000000000000000000000000000111 X
1Y
#15
0Y
#16
b00000000000000000000000000001000 X
1Y
#17
0Y
#18
b00000000000000000000000000001001 X
1Y
#19
0Y
#20
b00000000000000000000000000001010 X
1Y
#21
0Y
#22
1Q
b00000000000000000000000000000000000000000000000000000000000000000000000000000000000000000000000000000000000000000000000000001010 S
b00000000000000000000000000001011 X
1Y
#23
0Y
#24
b00000000000000000000000000000000000000000000000000000000000000000000000000000000000000000000000000000000000000000000000000001010 3
08
b001 9
b011 :
b00000000000000000000000000000000000000000000000000000000000000000000000000000000000000000000000000000000000000000000000000001010 ;
b01 L
1M
b00000000000000000000000000000000000000000000000000000000000000000000000000000000000000000000000000000000000000000000000000001011 S
b00000000000000000000000000001100 X
1Y
#25
0Y
#26
b010 9
b010 :
b00000000000000000000000000000000000000000000000000000000000000000000000000000000000000000000000000000000000000000000000000001011 ?
b10 L
b00000000000000000000000000000000000000000000000000000000000000000000000000000000000000000000000000000000000000000000000000001100 S
b00000000000000000000000000001101 X
1Y
#27
0Y
#28
b011 9
b001 :
b00000000000000000000000000000000000000000000000000000000000000000000000000000000000000000000000000000000000000000000000000001100 C
b11 L
b00000000000000000000000000000000000000000000000000000000000000000000000000000000000000000000000000000000000000000000000000001101 S
b00000000000000000000000000001110 X
1Y
#29
0Y
#30
17
b100 9
b000 :
b00000000000000000000000000000000000000000000000000000000000000000000000000000000000000000000000000000000000000000000000000001101 G
b00 L
0Q
b00000000000000000000000000001111 X
1Y
#31
0Y
#32
0M
b00000000000000000000000000010000 X
1Y
#33
0Y
#34
b00000000000000000000000000010001 X
1Y
#35
0Y
#36
b00000000000000000000000000010010 X
1Y
#37
0Y
#38
b00000000000000000000000000010011 X
1Y
#39
0Y
#40
b00000000000000000000000000010100 X
1Y
#41
0Y
#42
1R
b00000000000000000000000000010101 X
1Y
#43
0Y
#44
b00000000000000000000000000000000000000000000000000000000000000000000000000000000000000000000000000000000000000000000000000001011 3
07
b011 9
b001 :
b01 K
1N
b00000000000000000000000000010110 X
1Y
#45
0Y
#46
b00000000000000000000000000000000000000000000000000000000000000000000000000000000000000000000000000000000000000000000000000001100 3
b010 9
b010 :
b10 K
b00000000000000000000000000010111 X
1Y
#47
0Y
#48
b00000000000000000000000000000000000000000000000000000000000000000000000000000000000000000000000000000000000000000000000000001101 3
b001 9
b011 :
b11 K
b00000000000000000000000000011000 X
1Y
#49
0Y
#50
b00000000000000000000000000000000000000000000000000000000000000000000000000000000000000000000000000000000000000000000000000000000 3
18
b000 9
b100 :
b00 K
0R
b00000000000000000000000000011001 X
1Y
#51
0Y
#52
0N
b00000000000000000000000000011010 X
1Y
#53
0Y
#54
b00000000000000000000000000011011 X
1Y
#55
0Y
#56
b00000000000000000000000000011100 X
1Y
#57
0Y
#58
b00000000000000000000000000011101 X
1Y
#59
0Y
#60
b00000000000000000000000000011110 X
1Y
#61
0Y
#62
b00000000000000000000000000011111 X
1Y
#63
0Y
#64
b00000000000000000000000000100000 X
1Y
#65
0Y
#66
b00000000000000000000000000100001 X
1Y
#67
0Y
#68
b00000000000000000000000000100010 X
1Y
#69
0Y
#70
b00000000000000000000000000100011 X
1Y
#71
0Y
#72
b00000000000000000000000000100100 X
1Y
#73
0Y
#74
b00000000000000000000000000100101 X
1Y
#75
0Y
#76
b00000000000000000000000000100110 X
1Y
#77
0Y
#78
b00000000000000000000000000100111 X
1Y
#79
0Y
#80
b00000000000000000000000000101000 X
1Y
#81
0Y
#82
b00000000000000000000000000101001 X
1Y
#83
0Y
#84
b00000000000000000000000000101010 X
1Y
#85
0Y
#86
b00000000000000000000000000101011 X
1Y
#87
0Y
#88
b00000000000000000000000000101100 X
1Y
#89
0Y
#90
b00000000000000000000000000101101 X
1Y
#91
0Y
#92
b00000000000000000000000000101110 X
1Y
#93
0Y
#94
b00000000000000000000000000101111 X
1Y
#95
0Y
#96
b00000000000000000000000000110000 X
1Y
#97
0Y
#98
b00000000000000000000000000110001 X
1Y
#99
0Y
#100
b00000000000000000000000000110010 X
1Y
#101
0Y
#102
b00000000000000000000000000110011 X
1Y
#103
0Y
#104
b00000000000000000000000000110100 X
1Y
#105
0Y
#106
b00000000000000000000000000110101 X
1Y
#107
0Y
#108
b00000000000000000000000000110110 X
1Y
#109
0Y
#110
b00000000000000000000000000110111 X
1Y
#111
0Y
#112
b00000000000000000000000000111000 X
1Y
#113
0Y
#114
b00000000000000000000000000111001 X
1Y
#115
0Y
#116
b00000000000000000000000000111010 X
1Y
#117
0Y
#118
b00000000000000000000000000111011 X
1Y
#119
0Y
#120
b00000000000000000000000000111100 X
1Y
#121
0Y
#122
b00000000000000000000000000000000 W
b00000000000000000000000000111101 X
1Y
